{
    "kind": "Secret",
    "apiVersion": "v1",
    "metadata": {
        "name": "keycloak",
        "creationTimestamp": null
    },
    "data": {
        "admin-password": "VTZBMFA0NisyVkVqeDM0b0JMQjZybGx3WUo1S3NpdkdncGVnZFI4b2VlSXRia3FCY1g0MEVnPT0="
    }
}
